task4/top.vcd
$version Generated by VerilatedVcd $end
$date Thu Oct 26 10:27:45 2023 $end
$timescale 1ps $end

 $scope module TOP $end
  $var wire 12 ' bcd [11:0] $end
  $var wire  1 # clk $end
  $var wire  1 % en $end
  $var wire  1 $ rst $end
  $var wire  8 & v [7:0] $end
  $scope module top $end
   $var wire 32 * WIDTH [31:0] $end
   $var wire 12 ' bcd [11:0] $end
   $var wire  1 # clk $end
   $var wire  8 ( count [7:0] $end
   $var wire  1 % en $end
   $var wire  1 $ rst $end
   $var wire  8 & v [7:0] $end
   $scope module myCounter $end
    $var wire 32 * WIDTH [31:0] $end
    $var wire  1 # clk $end
    $var wire  8 ( count [7:0] $end
    $var wire  1 % en $end
    $var wire  1 $ rst $end
   $upscope $end
   $scope module myDecoder $end
    $var wire 12 ' BCD [11:0] $end
    $var wire 32 + i [31:0] $end
    $var wire 20 ) result [19:0] $end
    $var wire  8 ( x [7:0] $end
   $upscope $end
  $upscope $end
 $upscope $end
$enddefinitions $end


#92
1#
0$
1%
b00000000 &
b000000000000 '
b00000000 (
b00000000000000000000 )
b00000000000000000000000000001000 *
b00000000000000000000000000001000 +
#93
0#
#102
1#
b000000000001 '
b00000001 (
b00000000000100000000 )
#103
0#
#106
1#
b000000000010 '
b00000010 (
b00000000001000000000 )
#107
0#
#108
1#
b000000000011 '
b00000011 (
b00000000001100000000 )
#109
0#
#114
1#
b000000000100 '
b00000100 (
b00000000010000000000 )
#115
0#
#120
1#
b000000000101 '
b00000101 (
b00000000010100000000 )
#121
0#
#122
1#
b000000000110 '
b00000110 (
b00000000011000000000 )
#123
0#
#132
1#
b000000000111 '
b00000111 (
b00000000011100000000 )
#133
0#
#136
1#
b000000001000 '
b00001000 (
b00000000100000000000 )
#137
0#
#150
1#
b000000001001 '
b00001001 (
b00000000100100000000 )
#151
0#
#172
1#
b000000010000 '
b00001010 (
b00000001000000000000 )
#173
0#
#188
1#
b000000010001 '
b00001011 (
b00000001000100000000 )
#189
0#
#204
1#
b000000010010 '
b00001100 (
b00000001001000000000 )
#205
0#
#208
1#
b000000010011 '
b00001101 (
b00000001001100000000 )
#209
0#
#210
1#
b000000010100 '
b00001110 (
b00000001010000000000 )
#211
0#
#212
1#
b000000010101 '
b00001111 (
b00000001010100000000 )
#213
0#
#214
1#
b000000010110 '
b00010000 (
b00000001011000000000 )
#215
0#
#216
1#
b000000010111 '
b00010001 (
b00000001011100000000 )
#217
0#
#218
1#
b000000011000 '
b00010010 (
b00000001100000000000 )
#219
0#
#220
1#
b000000011001 '
b00010011 (
b00000001100100000000 )
#221
0#
#222
1#
b000000100000 '
b00010100 (
b00000010000000000000 )
#223
0#
#224
1#
b000000100001 '
b00010101 (
b00000010000100000000 )
#225
0#
#230
1#
b000000100010 '
b00010110 (
b00000010001000000000 )
#231
0#
#250
1#
b000000100011 '
b00010111 (
b00000010001100000000 )
#251
0#
#262
1#
b000000100100 '
b00011000 (
b00000010010000000000 )
#263
0#
#270
1#
b000000100101 '
b00011001 (
b00000010010100000000 )
#271
0#
#284
1#
b000000100110 '
b00011010 (
b00000010011000000000 )
#285
0#
#300
1#
b000000100111 '
b00011011 (
b00000010011100000000 )
#301
0#
#308
1#
b000000101000 '
b00011100 (
b00000010100000000000 )
#309
0#
#318
1#
b000000101001 '
b00011101 (
b00000010100100000000 )
#319
0#
#320
1#
b000000110000 '
b00011110 (
b00000011000000000000 )
#321
0#
#342
1#
b000000110001 '
b00011111 (
b00000011000100000000 )
#343
0#
#358
1#
b000000110010 '
b00100000 (
b00000011001000000000 )
#359
0#
#370
1#
b000000110011 '
b00100001 (
b00000011001100000000 )
#371
0#
#384
1#
b000000110100 '
b00100010 (
b00000011010000000000 )
#385
0#
#394
1#
b000000110101 '
b00100011 (
b00000011010100000000 )
#395
0#
#402
1#
b000000110110 '
b00100100 (
b00000011011000000000 )
#403
0#
#422
1#
b000000110111 '
b00100101 (
b00000011011100000000 )
#423
0#
#432
1#
b000000111000 '
b00100110 (
b00000011100000000000 )
#433
0#
#444
1#
b000000111001 '
b00100111 (
b00000011100100000000 )
#445
0#
#446
1#
b000001000000 '
b00101000 (
b00000100000000000000 )
#447
0#
#470
1#
b000001000001 '
b00101001 (
b00000100000100000000 )
#471
0#
#488
1#
b000001000010 '
b00101010 (
b00000100001000000000 )
#489
0#
#500
1#
b000001000011 '
b00101011 (
b00000100001100000000 )
#501
0#
#506
1#
b000001000100 '
b00101100 (
b00000100010000000000 )
#507
0#
#516
1#
b000001000101 '
b00101101 (
b00000100010100000000 )
#517
0#
#520
1#
b000001000110 '
b00101110 (
b00000100011000000000 )
#521
0#
#528
1#
b000001000111 '
b00101111 (
b00000100011100000000 )
#529
0#
#534
1#
b000001001000 '
b00110000 (
b00000100100000000000 )
#535
0#
#544
1#
b000001001001 '
b00110001 (
b00000100100100000000 )
